<?xml version="1.0" encoding="utf-8"?>
<!-- Generator: Adobe Illustrator 23.0.1, SVG Export Plug-In . SVG Version: 6.00 Build 0)  -->
<svg version="1.1" id="Layer_1" xmlns="http://www.w3.org/2000/svg" xmlns:xlink="http://www.w3.org/1999/xlink" x="0px" y="0px"
	 viewBox="0 0 1366 906" style="enable-background:new 0 0 1366 906;" xml:space="preserve">
<style type="text/css">
	.st0{fill:url(#SVGID_1_);}
	.st1{clip-path:url(#SVGID_3_);}
</style>
<g>
	<linearGradient id="SVGID_1_" gradientUnits="userSpaceOnUse" x1="142.5" y1="915.5" x2="1144.527" y2="-86.527">
		<stop  offset="0" style="stop-color:#20CBAF"/>
		<stop  offset="0.6779" style="stop-color:#8FF2DF"/>
		<stop  offset="1" style="stop-color:#8FF2DF"/>
	</linearGradient>
	<path class="st0" d="M0,0v773c142.7-82,263.9-99.3,334-103c219.7-11.7,402.2,75,463,108c49.4,26.8,67.9,43.4,126,68
		c113,47.9,216.8,58.5,287,60V0H0z"/>
	<g>
		<defs>
			<path id="SVGID_2_" d="M576.9-37.9C539.7,45.5,519,137.8,519,235c0,370.3,300.2,670.5,670.5,670.5c61.1,0,120.3-8.2,176.5-23.5
				V-37.9H576.9z"/>
		</defs>
		<clipPath id="SVGID_3_">
			<use xlink:href="#SVGID_2_"  style="overflow:visible;"/>
		</clipPath>
		<g class="st1">
			<g>
				<defs>
					<rect id="SVGID_4_" x="217.6" y="1" width="1372.9" height="915"/>
				</defs>
				<clipPath id="SVGID_5_">
					<use xlink:href="#SVGID_4_"  style="overflow:visible;"/>
				</clipPath>
				<g transform="matrix(1 0 0 1 -1.525879e-05 0)" style="clip-path:url(#SVGID_5_);">
					
						<image style="overflow:visible;" width="1880" height="1253" xlink:href="41C4952F.jpg"  transform="matrix(0.7302 0 0 0.7302 217.5674 1)">
					</image>
				</g>
			</g>
		</g>
	</g>
</g>
</svg>
