<?xml version="1.0" encoding="utf-8"?>
<!-- Generator: Adobe Illustrator 23.0.1, SVG Export Plug-In . SVG Version: 6.00 Build 0)  -->
<svg version="1.1" id="Layer_1" xmlns="http://www.w3.org/2000/svg" xmlns:xlink="http://www.w3.org/1999/xlink" x="0px" y="0px"
	 viewBox="0 0 1047 200" style="enable-background:new 0 0 1047 200;" xml:space="preserve">
<style type="text/css">
	.st0{opacity:0.2;}
	.st1{fill:#CCCCCC;}
	.st2{fill:none;stroke:#CCCCCC;stroke-miterlimit:10;stroke-dasharray:10.0984,10.0984;}
	.st3{fill:#FFFFFF;}
	.st4{fill:#20CBAF;}
	.st5{fill:none;stroke:#CCCCCC;stroke-miterlimit:10;stroke-dasharray:9.9539;}
	.st6{opacity:0.2;fill:#CCCCCC;}
</style>
<g class="st0">
	<g>
		<g>
			<path class="st1" d="M176.1,15.5h-9.4V-0.1h-15.6v15.6H48V-0.1H32.4v15.6H23C10.1,15.5-0.4,26.1-0.4,39v137.5
				c0,12.9,10.5,23.4,23.4,23.4h153.1c12.9,0,23.4-10.5,23.4-23.4V39C199.6,26.1,189.1,15.5,176.1,15.5z M184,176.5
				c0,4.3-3.5,7.8-7.8,7.8H23c-4.3,0-7.8-3.5-7.8-7.8V73.4H184V176.5z M184,57.7H15.2V39c0-4.3,3.5-7.8,7.8-7.8h9.4v15.6H48V31.2
				h103.1v15.6h15.6V31.2h9.4c4.3,0,7.8,3.5,7.8,7.8V57.7z"/>
		</g>
	</g>
	<g>
		<g>
			<rect x="29.3" y="89.8" class="st1" width="15.6" height="15.6"/>
		</g>
	</g>
	<g>
		<g>
			<rect x="60.5" y="89.8" class="st1" width="15.6" height="15.6"/>
		</g>
	</g>
	<g>
		<g>
			<rect x="91.8" y="89.8" class="st1" width="15.6" height="15.6"/>
		</g>
	</g>
	<g>
		<g>
			<rect x="123" y="89.8" class="st1" width="15.6" height="15.6"/>
		</g>
	</g>
	<g>
		<g>
			<rect x="154.3" y="89.8" class="st1" width="15.6" height="15.6"/>
		</g>
	</g>
	<g>
		<g>
			<rect x="29.3" y="121" class="st1" width="15.6" height="15.6"/>
		</g>
	</g>
	<g>
		<g>
			<rect x="60.5" y="121" class="st1" width="15.6" height="15.6"/>
		</g>
	</g>
	<g>
		<g>
			<rect x="91.8" y="121" class="st1" width="15.6" height="15.6"/>
		</g>
	</g>
	<g>
		<g>
			<rect x="123" y="121" class="st1" width="15.6" height="15.6"/>
		</g>
	</g>
	<g>
		<g>
			<rect x="29.3" y="152.3" class="st1" width="15.6" height="15.6"/>
		</g>
	</g>
	<g>
		<g>
			<rect x="60.5" y="152.3" class="st1" width="15.6" height="15.6"/>
		</g>
	</g>
	<g>
		<g>
			<rect x="91.8" y="152.3" class="st1" width="15.6" height="15.6"/>
		</g>
	</g>
	<g>
		<g>
			<rect x="123" y="152.3" class="st1" width="15.6" height="15.6"/>
		</g>
	</g>
	<g>
		<g>
			<rect x="154.3" y="121" class="st1" width="15.6" height="15.6"/>
		</g>
	</g>
</g>
<g>
	<circle class="st2" cx="99.6" cy="99.9" r="90"/>
</g>
<g>
	
		<image style="overflow:visible;opacity:0.25;" width="172" height="172" xlink:href="D6C1B8C2.png"  transform="matrix(1 0 0 1 13.5576 16.5576)">
	</image>
	<g>
		<circle class="st3" cx="99.6" cy="99.9" r="73"/>
	</g>
</g>
<g>
	<g>
		<g>
			<g>
				<path class="st4" d="M120.5,76.8H118v-4.3h-4.3v4.3H85.5v-4.3h-4.3v4.3h-2.6c-3.5,0-6.4,2.9-6.4,6.4v37.6c0,3.5,2.9,6.4,6.4,6.4
					h41.9c3.5,0,6.4-2.9,6.4-6.4V83.2C127,79.7,124.1,76.8,120.5,76.8z M122.7,120.9c0,1.2-1,2.1-2.1,2.1H78.6c-1.2,0-2.1-1-2.1-2.1
					V92.6h46.2V120.9z M122.7,88.4H76.5v-5.1c0-1.2,1-2.1,2.1-2.1h2.6v4.3h4.3v-4.3h28.2v4.3h4.3v-4.3h2.6c1.2,0,2.1,1,2.1,2.1V88.4
					z"/>
			</g>
		</g>
		<g>
			<g>
				<rect x="80.3" y="97.1" class="st4" width="4.3" height="4.3"/>
			</g>
		</g>
		<g>
			<g>
				<rect x="88.9" y="97.1" class="st4" width="4.3" height="4.3"/>
			</g>
		</g>
		<g>
			<g>
				<rect x="97.4" y="97.1" class="st4" width="4.3" height="4.3"/>
			</g>
		</g>
		<g>
			<g>
				<rect x="106" y="97.1" class="st4" width="4.3" height="4.3"/>
			</g>
		</g>
		<g>
			<g>
				<rect x="114.6" y="97.1" class="st4" width="4.3" height="4.3"/>
			</g>
		</g>
		<g>
			<g>
				<rect x="80.3" y="105.7" class="st4" width="4.3" height="4.3"/>
			</g>
		</g>
		<g>
			<g>
				<rect x="88.9" y="105.7" class="st4" width="4.3" height="4.3"/>
			</g>
		</g>
		<g>
			<g>
				<rect x="97.4" y="105.7" class="st4" width="4.3" height="4.3"/>
			</g>
		</g>
		<g>
			<g>
				<rect x="106" y="105.7" class="st4" width="4.3" height="4.3"/>
			</g>
		</g>
		<g>
			<g>
				<rect x="80.3" y="114.2" class="st4" width="4.3" height="4.3"/>
			</g>
		</g>
		<g>
			<g>
				<rect x="88.9" y="114.2" class="st4" width="4.3" height="4.3"/>
			</g>
		</g>
		<g>
			<g>
				<rect x="97.4" y="114.2" class="st4" width="4.3" height="4.3"/>
			</g>
		</g>
		<g>
			<g>
				<rect x="106" y="114.2" class="st4" width="4.3" height="4.3"/>
			</g>
		</g>
		<g>
			<g>
				<rect x="114.6" y="105.7" class="st4" width="4.3" height="4.3"/>
			</g>
		</g>
	</g>
</g>
<g class="st0">
	<g>
		<path class="st1" d="M430.7,91.9c-5.5,5.5-5.5,14.5,0,20.1c5.5,5.5,14.5,5.5,20.1,0c38.2-38.2,100.3-38.2,138.5,0
			c2.8,2.8,6.4,4.2,10,4.2s7.2-1.4,10-4.2c5.5-5.5,5.5-14.5,0-20.1C560.1,42.6,479.9,42.6,430.7,91.9z"/>
		<path class="st1" d="M469,130.2c-5.5,5.5-5.5,14.5,0,20.1c5.5,5.5,14.5,5.5,20.1,0c17-17.1,44.8-17.1,61.9,0
			c2.8,2.8,6.4,4.2,10,4.2c3.6,0,7.2-1.4,10-4.2c5.5-5.5,5.5-14.5,0-20C542.9,102.1,497.1,102.1,469,130.2z"/>
		<circle class="st1" cx="520" cy="181.1" r="18.9"/>
		<path class="st1" d="M648.2,53c-70.7-70.6-185.6-70.6-256.3,0c-5.5,5.5-5.5,14.5,0,20.1c5.5,5.5,14.5,5.5,20.1,0
			c59.6-59.6,156.6-59.6,216.2,0c2.8,2.8,6.4,4.2,10,4.2s7.2-1.4,10-4.2C653.7,67.5,653.7,58.5,648.2,53z"/>
	</g>
</g>
<circle class="st5" cx="520" cy="100" r="90"/>
<g>
	
		<image style="overflow:visible;opacity:0.25;" width="171" height="172" xlink:href="D6C1B8C6.png"  transform="matrix(1 0 0 1 434.5576 16.5576)">
	</image>
	<g>
		<circle class="st3" cx="520" cy="100" r="73"/>
	</g>
</g>
<g>
	<g>
		<path class="st4" d="M501.5,98.3c-1.1,1.1-1.1,3,0,4.2c1.1,1.1,3,1.1,4.2,0c7.9-7.9,20.8-7.9,28.7,0c0.6,0.6,1.3,0.9,2.1,0.9
			s1.5-0.3,2.1-0.9c1.1-1.1,1.1-3,0-4.2C528.3,88.1,511.7,88.1,501.5,98.3z"/>
		<path class="st4" d="M509.4,106.2c-1.1,1.1-1.1,3,0,4.2c1.1,1.1,3,1.1,4.2,0c3.5-3.5,9.3-3.5,12.8,0c0.6,0.6,1.3,0.9,2.1,0.9
			c0.7,0,1.5-0.3,2.1-0.9c1.1-1.1,1.1-3,0-4.1C524.7,100.4,515.3,100.4,509.4,106.2z"/>
		<circle class="st4" cx="520" cy="116.8" r="3.9"/>
		<path class="st4" d="M546.5,90.3c-14.6-14.6-38.4-14.6-53,0c-1.1,1.1-1.1,3,0,4.2c1.1,1.1,3,1.1,4.2,0c12.3-12.3,32.4-12.3,44.7,0
			c0.6,0.6,1.3,0.9,2.1,0.9c0.7,0,1.5-0.3,2.1-0.9C547.7,93.3,547.7,91.4,546.5,90.3z"/>
	</g>
</g>
<path class="st6" d="M1047.2,102.5v27.4c0,10.7-8.7,19.4-19.4,19.4h-5.6c-2.5,23.5-22.5,41.9-46.7,41.9h-14c-2,5.2-7,8.9-12.9,8.9
	h-12.9c-7.6,0-13.9-6.2-13.9-13.9c0-7.6,6.2-13.9,13.9-13.9h12.9c5.9,0,10.9,3.7,12.9,8.9h14c20.4,0,36.9-16.6,36.9-36.9V129V88.1
	v-7.7c0-38.8-31.5-70.3-70.3-70.3c-38.8,0-70.3,31.5-70.3,70.3v7.7V129v15.3c0,2.8-2.2,5-5,5h-10.4c-10.7,0-19.4-8.7-19.4-19.4
	v-27.4c0-10.7,8.7-19.4,19.4-19.4h5.4v-2.7c0-44.3,36-80.3,80.3-80.3c44.3,0,80.3,36,80.3,80.3v2.7h5.4
	C1038.4,83.1,1047.2,91.8,1047.2,102.5z"/>
<circle class="st5" cx="942" cy="100" r="90"/>
<g>
	
		<image style="overflow:visible;opacity:0.25;" width="171" height="172" xlink:href="D6C1B8C1.png"  transform="matrix(1 0 0 1 856.5576 16.5576)">
	</image>
	<g>
		<circle class="st3" cx="942" cy="100" r="73"/>
	</g>
</g>
<path class="st4" d="M969.3,100.7v7.1c0,2.8-2.3,5-5,5h-1.5c-0.6,6.1-5.8,10.9-12.1,10.9h-3.6c-0.5,1.3-1.8,2.3-3.3,2.3h-3.4
	c-2,0-3.6-1.6-3.6-3.6c0-2,1.6-3.6,3.6-3.6h3.4c1.5,0,2.8,1,3.3,2.3h3.6c5.3,0,9.6-4.3,9.6-9.6v-4V97v-2c0-10.1-8.2-18.2-18.2-18.2
	c-10.1,0-18.2,8.2-18.2,18.2v2v10.6v4c0,0.7-0.6,1.3-1.3,1.3h-2.7c-2.8,0-5-2.3-5-5v-7.1c0-2.8,2.3-5,5-5h1.4V95
	c0-11.5,9.3-20.8,20.8-20.8c11.5,0,20.8,9.3,20.8,20.8v0.7h1.4C967.1,95.7,969.3,97.9,969.3,100.7z"/>
<g>
	<path class="st5" d="M610,100c12.8-5.8,31.9-12,54.5-10.5c40.9,2.8,56.9,28.9,92,36c20.9,4.2,51.5,2.3,93.7-25.5"/>
	<g>
		<path class="st1" d="M824.8,123c-0.1,0.1-0.2,0.3-0.3,0.3c-0.1,0.1-0.3,0.1-0.4,0c-0.3-0.1-0.4-0.4-0.3-0.7l3.7-9.3l-9.3-3.7
			c-0.3-0.1-0.4-0.4-0.3-0.7c0.1-0.3,0.4-0.4,0.7-0.3l9.8,3.9c0.3,0.1,0.4,0.4,0.3,0.7L824.8,123z"/>
	</g>
</g>
<g>
	<path class="st5" d="M190,100c12.8-5.8,31.9-12,54.5-10.5c40.9,2.8,56.9,28.9,92,36c20.9,4.2,51.5,2.3,93.7-25.5"/>
	<g>
		<path class="st1" d="M404.8,123c-0.1,0.1-0.2,0.3-0.3,0.3s-0.3,0.1-0.4,0c-0.3-0.1-0.4-0.4-0.3-0.7l3.7-9.3l-9.3-3.7
			c-0.3-0.1-0.4-0.4-0.3-0.7c0.1-0.3,0.4-0.4,0.7-0.3l9.8,3.9c0.3,0.1,0.4,0.4,0.3,0.7L404.8,123z"/>
	</g>
</g>
</svg>
